{
    "uname": "Linux 4.14.225-121.362.amzn1.x86_64 #1 SMP Tue Mar 23 00:29:14 UTC 2021 x86_64",
    "cpu": "Intel(R) Xeon(R) Platinum 8175M CPU @ 2.50GHz",
    "buildtools": {
        "ar": "LLVM (http://llvm.org/):",
        "bazel": "5.0.0",
        "gcc": "clang version 13.0.0 (https://github.com/llvm/llvm-project.git 5f663f5f36a9b5c6b76e84d06533feb5a9a68bfa)",
        "glibc": "glibc version 2.17",
        "go": "go1.17.6",
        "ld": "LLD 13.0.0 (https://github.com/llvm/llvm-project.git 5f663f5f36a9b5c6b76e84d06533feb5a9a68bfa) (compatible with GNU linkers)",
        "cmake": "cmake version 3.21.3",
        "git": "git version 2.18.5",
        "make": "GNU Make 4.3",
        "node": "v16.13.2",
        "rustc": "rustc 1.58.1 (db9d1b20b 2022-01-20)"
    }
}
