key,summary,category,full_name,alert_warn_detail,alert_error_detail,acceptable,targeted,alert_warn_detail_cs,alert_error_detail_cs,acceptable_cs,targeted_cs,evaluate_type,format_type,is_species_specific,include_cumulative,alert_warn_name,alert_error_name,help_description
pre_normalization_cmb_reads_per_filtered_bc,TRUE,Aggregation,Pre-Normalization Confidently Mapped Barcoded Reads per Spot,,,,,,,,,,int,TRUE,,,,"The mean number of confidently-mapped-to-probeset, valid-barcode reads per spot in this input sample, prior to depth normalization."
filtered_bcs_conf_mapped_barcoded_reads_cum_frac,TRUE,Spot Calling,Fraction Reads in Spots Under Tissue,"Ideal > 50%. Application performance may be affected. Many of the reads were not assigned to tissue covered spots. This could be caused by high levels of ambient RNA resulting from inefficient permeabilization, because the incorrect image was used, or because of poor tissue detection. The latter case can be addressed by using the manual tissue selection option through Loupe.",alert_warn_detail,0.3,0.5,alert_warn_detail,alert_warn_detail,acceptable,targeted,gt,percentage,TRUE,FALSE,Low Fraction Reads in Spots,alert_warn_name,"The fraction of valid-barcode, confidently-mapped-to-probeset reads with tissue-associated barcodes."
